<?xml version="1.0" encoding="UTF-8"?>
<CustomTab xmlns="http://soap.sforce.com/2006/04/metadata">
    <label>Virtual Course Survey</label>
    <mobileReady>false</mobileReady>
    <motif>Custom57: Building Block</motif>
    <page>SurveyTabsNoLongerAvailable</page>
</CustomTab>
